<?xml version="1.0" encoding="UTF-8" standalone="no"?>
<!-- Created with Inkscape (http://www.inkscape.org/) -->

<svg
   xmlns:dc="http://purl.org/dc/elements/1.1/"
   xmlns:cc="http://creativecommons.org/ns#"
   xmlns:rdf="http://www.w3.org/1999/02/22-rdf-syntax-ns#"
   xmlns:svg="http://www.w3.org/2000/svg"
   xmlns="http://www.w3.org/2000/svg"
   xmlns:sodipodi="http://sodipodi.sourceforge.net/DTD/sodipodi-0.dtd"
   xmlns:inkscape="http://www.inkscape.org/namespaces/inkscape"
   width="512"
   height="512"
   viewBox="0 0 511.99999 511.99999"
   id="svg25122"
   version="1.1"
   inkscape:version="0.92.2 (5c3e80d, 2017-08-06)"
   sodipodi:docname="alertas.svg"
   inkscape:export-filename="C:\Users\Soporte\Desktop\FREDDY APP\BOTONES FINALES\1\0 DESPLEGABLE\alertas.png"
   inkscape:export-xdpi="96"
   inkscape:export-ydpi="96">
  <defs
     id="defs25124" />
  <sodipodi:namedview
     id="base"
     pagecolor="#ffffff"
     bordercolor="#666666"
     borderopacity="1.0"
     inkscape:pageopacity="0.0"
     inkscape:pageshadow="2"
     inkscape:zoom="0.5"
     inkscape:cx="291.71055"
     inkscape:cy="255.99999"
     inkscape:document-units="px"
     inkscape:current-layer="g24430"
     showgrid="false"
     units="px"
     inkscape:window-width="1360"
     inkscape:window-height="706"
     inkscape:window-x="-8"
     inkscape:window-y="-8"
     inkscape:window-maximized="1" />
  <metadata
     id="metadata25127">
    <rdf:RDF>
      <cc:Work
         rdf:about="">
        <dc:format>image/svg+xml</dc:format>
        <dc:type
           rdf:resource="http://purl.org/dc/dcmitype/StillImage" />
        <dc:title></dc:title>
      </cc:Work>
    </rdf:RDF>
  </metadata>
  <g
     inkscape:label="Capa 1"
     inkscape:groupmode="layer"
     id="layer1"
     transform="translate(0,-540.36219)">
    <rect
       style="opacity:1;fill:none;fill-opacity:1;stroke:none;stroke-width:7.4000001;stroke-linecap:round;stroke-miterlimit:4;stroke-dasharray:none;stroke-dashoffset:0;stroke-opacity:1"
       id="rect25718"
       width="512"
       height="512"
       x="0"
       y="540.36218" />
    <g
       transform="matrix(5.6377848,0,0,5.6377848,-3108.5806,-3010.704)"
       id="g96062" />
    <g
       id="g24430"
       transform="matrix(7.1111111,0,0,7.1111111,-7914.8359,-6246.3495)"
       inkscape:export-filename="C:\Users\Anthony Garcia\Documents\FREDDY\Gp APP\PANTALLAS\Desplegable.png"
       inkscape:export-xdpi="99.979759"
       inkscape:export-ydpi="99.979759">
      <g
         id="g24288-1"
         transform="translate(2.0635955,106.48487)">
        <path
           id="use4563-1-8-2-4-2"
           d="m 1182.9602,883.89646 a 36,36 0 0 1 -36,36 36,36 0 0 1 -36,-36 36,36 0 0 1 36,-36 36,36 0 0 1 36,36 z"
           style="fill:#808080;stroke:none"
           inkscape:connector-curvature="0" />
        <path
           id="path6450-48-5-1-7-7-1"
           style="fill:#ffffff"
           d="m 1150.5564,912.76005 c 6.254,-0.72369 12.2824,-3.67623 16.9099,-8.28197 3.2376,-3.22233 5.5514,-6.894 7.0072,-11.11947 1.0813,-3.13855 1.5532,-6.01698 1.5532,-9.47348 0,-2.49009 -0.1663,-4.0678 -0.6698,-6.35401 -2.3252,-10.55792 -10.6316,-19.13688 -21.1385,-21.83217 -2.6353,-0.67601 -4.2932,-0.87622 -7.2562,-0.87622 -2.9629,0 -4.6208,0.20021 -7.2561,0.87622 -5.0327,1.29101 -9.538,3.87507 -13.2761,7.61463 -4.5815,4.58329 -7.3852,10.18694 -8.3033,16.59526 -0.2768,1.9325 -0.3106,5.66232 -0.068,7.50266 0.8689,6.59014 3.7115,12.38476 8.352,17.02523 5.1457,5.1457 11.6398,8.05034 19.0596,8.52486 1.0562,0.0676 3.6483,-0.0351 5.0862,-0.20154 z m -5.7603,2.74337 c -2.7584,-0.25864 -6.4487,-1.05729 -8.5664,-1.85391 -7.4936,-2.81893 -13.3606,-7.87776 -17.0766,-14.72417 -1.9147,-3.52776 -2.8037,-6.30103 -3.65,-11.38731 -0.2193,-1.31773 -0.2197,-5.98157 -5e-4,-7.30274 0.8446,-5.09337 1.7093,-7.78834 3.654,-11.38732 4.5169,-8.35945 12.6042,-14.28231 21.8645,-16.01277 2.817,-0.52641 3.2945,-0.57243 5.9412,-0.57243 2.6467,0 3.1243,0.046 5.9412,0.57243 6.1802,1.15487 11.8558,4.16486 16.4117,8.70372 2.216,2.20772 3.9584,4.54325 5.4529,7.30905 1.8918,3.50113 2.8815,6.5385 3.5897,11.016 0.299,1.89021 0.299,6.15518 0,8.04539 -0.7083,4.47841 -1.6989,7.51788 -3.5902,11.01598 -4.5211,8.36232 -12.7028,14.33947 -21.926,16.01801 -0.8169,0.14868 -1.7916,0.32567 -2.166,0.3933 -0.703,0.12699 -5.0028,0.24895 -5.8793,0.16677 z"
           inkscape:connector-curvature="0" />
        <g
           id="g24284-7"
           style="fill:#ffffff"
           transform="matrix(0.88380588,0,0,0.88380588,146.93034,-0.74606056)" />
      </g>
      <g
         transform="matrix(0.66832754,0,0,0.70940751,306.00272,273.23737)"
         id="g24424">
        <g
           id="g28665-5-54-8"
           transform="translate(1221.548,513.6411)"
           style="fill:#ffffff">
          <path
             inkscape:connector-curvature="0"
             id="path28166-2-1-2-9-6"
             d="m 38.92546,512.80945 c -0.98437,-0.27228 -1.59853,-0.79342 -2.14696,-1.8218 -0.42131,-0.79001 -0.44582,-2.22823 -0.0526,-3.0844 0.59523,-1.29592 1.6859,-1.99691 3.107,-1.99691 1.42109,0 2.51176,0.70099 3.107,1.99691 0.37039,0.8064 0.36437,2.27665 -0.0125,3.05422 -0.73697,1.52052 -2.40672,2.29323 -4.00197,1.85198 z"
             style="fill:#ffffff" />
          <path
             inkscape:connector-curvature="0"
             id="path28138-6-9-9-85-2"
             d="m 38.70442,503.03514 c -0.51327,-0.26047 -1.0398,-0.93978 -1.26521,-1.63233 -0.0633,-0.19457 -0.68476,-4.67192 -1.38094,-9.94966 -1.42366,-10.79258 -1.42523,-10.81631 -0.80028,-12.0461 0.49886,-0.98166 1.38347,-1.82605 2.48159,-2.36878 0.85427,-0.42219 0.92012,-0.43591 2.09335,-0.43591 1.17323,0 1.23908,0.0137 2.09334,0.43591 1.09813,0.54273 1.98273,1.38712 2.48159,2.36878 0.62712,1.23404 0.62619,1.24806 -0.80063,12.10322 -1.21895,9.27373 -1.28249,9.68125 -1.61709,10.37161 -0.46848,0.96658 -0.98912,1.31777 -2.03035,1.36955 -0.60475,0.0301 -0.8548,-0.013 -1.25537,-0.21629 z"
             style="fill:#ffffff" />
        </g>
        <path
           id="path28168-6-5-2-3-53-8"
           style="fill:#ffffff"
           d="m 1292.4068,1030.2401 c 0.056,-0.1467 -30.7451,-54.0754 -31.0957,-54.44397 -0.1398,-0.14698 -0.1859,-0.13992 -0.3727,0.0571 -0.2552,0.26915 -0.1655,0.11126 -23.9958,42.23817 -3.9577,6.9963 -6.7438,12.0391 -6.7059,12.1376 0.057,0.1482 3.8377,0.1687 31.0872,0.1687 26.2641,0 31.0317,-0.024 31.0829,-0.1576 z m -64.5846,4.6462 c -0.1423,-0.027 -0.2339,-0.09 -0.2036,-0.1388 0.03,-0.049 -0.1361,-0.1484 -0.3696,-0.221 -0.7469,-0.2319 -1.4517,-0.8493 -1.8271,-1.6005 -0.1889,-0.378 -0.3677,-0.663 -0.3974,-0.6332 -0.1071,0.1071 -0.1657,-0.8212 -0.083,-1.3239 0.046,-0.2827 0.092,-0.437 0.1021,-0.3427 0.01,0.094 0.1079,-0.086 0.2177,-0.3998 0.1924,-0.5502 21.3731,-38.09574 31.7632,-56.30429 0.354,-0.62032 0.9033,-1.3982 1.2208,-1.72862 0.5665,-0.58954 1.5592,-1.19723 1.9614,-1.20068 0.1594,-0.002 0.1697,-0.0233 0.047,-0.10093 -0.1065,-0.0675 0,-0.11529 0.3427,-0.14957 0.6838,-0.069 1.5334,0.0277 1.337,0.15219 -0.116,0.0735 -0.1037,0.097 0.051,0.0983 0.3208,0.003 1.3034,0.5418 1.7915,0.98281 0.8246,0.74495 -1.0521,-2.49045 28.7712,49.60099 2.708,4.73 4.9581,8.7834 5.0001,9.0075 0.045,0.2393 0.1107,0.3519 0.1596,0.2728 0.047,-0.076 0.1096,0.062 0.1439,0.3186 0.074,0.5486 -0.029,1.5768 -0.1391,1.3982 -0.044,-0.072 -0.1372,0.066 -0.2116,0.3146 -0.22,0.7341 -1.3937,1.7323 -2.0434,1.7379 -0.154,0 -0.1672,0.025 -0.054,0.097 0.097,0.062 -0.065,0.1216 -0.457,0.1686 -0.6676,0.08 -66.7062,0.074 -67.1238,-0.01 z"
           inkscape:connector-curvature="0" />
      </g>
    </g>
  </g>
</svg>
