<?xml version="1.0" encoding="UTF-8" standalone="no"?>
<!-- Created with Inkscape (http://www.inkscape.org/) -->

<svg
   xmlns:dc="http://purl.org/dc/elements/1.1/"
   xmlns:cc="http://creativecommons.org/ns#"
   xmlns:rdf="http://www.w3.org/1999/02/22-rdf-syntax-ns#"
   xmlns:svg="http://www.w3.org/2000/svg"
   xmlns="http://www.w3.org/2000/svg"
   xmlns:sodipodi="http://sodipodi.sourceforge.net/DTD/sodipodi-0.dtd"
   xmlns:inkscape="http://www.inkscape.org/namespaces/inkscape"
   width="512"
   height="512"
   viewBox="0 0 511.99999 511.99999"
   id="svg25122"
   version="1.1"
   inkscape:version="0.92.2 (5c3e80d, 2017-08-06)"
   sodipodi:docname="vehiculos.svg"
   inkscape:export-filename="C:\Users\Soporte\Desktop\FREDDY APP\BOTONES FINALES\1\0 DESPLEGABLE\vehiculos.png"
   inkscape:export-xdpi="96"
   inkscape:export-ydpi="96">
  <defs
     id="defs25124" />
  <sodipodi:namedview
     id="base"
     pagecolor="#ffffff"
     bordercolor="#666666"
     borderopacity="1.0"
     inkscape:pageopacity="0.0"
     inkscape:pageshadow="2"
     inkscape:zoom="0.5"
     inkscape:cx="-113.00001"
     inkscape:cy="255.99999"
     inkscape:document-units="px"
     inkscape:current-layer="layer1"
     showgrid="false"
     units="px"
     inkscape:window-width="1360"
     inkscape:window-height="706"
     inkscape:window-x="-8"
     inkscape:window-y="-8"
     inkscape:window-maximized="1" />
  <metadata
     id="metadata25127">
    <rdf:RDF>
      <cc:Work
         rdf:about="">
        <dc:format>image/svg+xml</dc:format>
        <dc:type
           rdf:resource="http://purl.org/dc/dcmitype/StillImage" />
        <dc:title />
      </cc:Work>
    </rdf:RDF>
  </metadata>
  <g
     inkscape:label="Capa 1"
     inkscape:groupmode="layer"
     id="layer1"
     transform="translate(0,-540.36219)">
    <rect
       style="opacity:1;fill:none;fill-opacity:1;stroke:none;stroke-width:7.4000001;stroke-linecap:round;stroke-miterlimit:4;stroke-dasharray:none;stroke-dashoffset:0;stroke-opacity:1"
       id="rect25718"
       width="512"
       height="512"
       x="0"
       y="540.36218" />
    <g
       transform="matrix(5.6377848,0,0,5.6377848,-3108.5806,-3010.704)"
       id="g96062" />
    <g
       id="g24661"
       transform="matrix(7.1111151,0,0,7.1111151,4260.6972,-7546.0923)"
       inkscape:export-filename="C:\Users\Anthony Garcia\Documents\FREDDY\Gp APP\PANTALLAS\Desplegable.png"
       inkscape:export-xdpi="99.979759"
       inkscape:export-ydpi="99.979759">
      <path
         inkscape:connector-curvature="0"
         style="fill:#808080;stroke:none"
         d="m -527.16025,1173.157 a 36,36 0 0 1 -36,36 36,36 0 0 1 -35.99996,-36 36,36 0 0 1 35.99996,-36 36,36 0 0 1 36,36 z"
         id="use4563-1-3-9-5-6" />
      <path
         inkscape:connector-curvature="0"
         d="m -559.56405,1202.0206 c 6.254,-0.7237 12.2824,-3.6762 16.9099,-8.282 3.2376,-3.2223 5.5513,-6.894 7.0072,-11.1195 1.0813,-3.1385 1.5532,-6.0169 1.5532,-9.4734 0,-2.4901 -0.1663,-4.0678 -0.6698,-6.354 -2.3252,-10.5579 -10.6316,-19.1369 -21.1385,-21.8322 -2.6353,-0.676 -4.2932,-0.8762 -7.2562,-0.8762 -2.9629,0 -4.6209,0.2002 -7.2562,0.8762 -5.0326,1.291 -9.5379,3.8751 -13.276,7.6146 -4.58146,4.5833 -7.38526,10.187 -8.30326,16.5953 -0.2768,1.9325 -0.3107,5.6623 -0.068,7.5027 0.8688,6.5901 3.7115,12.3847 8.35186,17.0252 5.1458,5.1457 11.6399,8.0503 19.0597,8.5248 1.0562,0.068 3.6482,-0.035 5.0861,-0.2015 z m -5.7603,2.7434 c -2.7584,-0.2587 -6.4488,-1.0573 -8.5664,-1.854 -7.4936,-2.8189 -13.3607,-7.8777 -17.07656,-14.7241 -1.9147,-3.5278 -2.8037,-6.3011 -3.6501,-11.3873 -0.2192,-1.3177 -0.2196,-5.9816 -4e-4,-7.3027 0.8446,-5.0934 1.7093,-7.7884 3.654,-11.3874 4.51686,-8.3594 12.60416,-14.2823 21.86446,-16.0127 2.817,-0.5265 3.2945,-0.5725 5.9412,-0.5725 2.6467,0 3.1242,0.046 5.9412,0.5725 6.1802,1.1548 11.8558,4.1648 16.4117,8.7037 2.216,2.2077 3.9584,4.5432 5.4528,7.309 1.8918,3.5012 2.8816,6.5385 3.5898,11.016 0.299,1.8902 0.299,6.1552 0,8.0454 -0.7083,4.4784 -1.6989,7.5179 -3.5902,11.016 -4.5211,8.3623 -12.7028,14.3394 -21.926,16.018 -0.8169,0.1487 -1.7916,0.3257 -2.166,0.3933 -0.703,0.127 -5.0028,0.2489 -5.8794,0.1668 z"
         style="fill:#ffffff"
         id="path6450-48-5-49-1-1-7" />
      <path
         inkscape:connector-curvature="0"
         id="path24452"
         d="m -584.85565,1189.9383 c -0.1955,-0.1586 -0.4214,-0.4479 -0.5021,-0.6428 -0.1365,-0.3294 -0.391,-10.5283 -0.3955,-15.8507 0,-2.9708 0.5058,-4.6542 1.7965,-5.9492 0.3307,-0.3319 0.6011,-0.6973 0.6009,-0.8121 0,-0.2693 -0.4569,-1.0528 -0.8899,-1.5282 -0.2883,-0.3165 -0.4445,-0.3722 -1.0444,-0.3722 -0.9156,0 -1.1445,-0.1408 -1.5407,-0.9477 -0.4157,-0.8466 -0.4122,-1.1294 0.018,-1.4788 0.8003,-0.6496 3.0319,-0.9202 3.8756,-0.47 l 0.4052,0.2163 -0.07,1.3207 c -0.064,1.1958 0.024,1.8208 0.2265,1.6117 0.042,-0.043 0.4947,-1.2289 1.0066,-2.6352 1.7022,-4.6765 2.5982,-6.496 3.9141,-7.9476 1.2669,-1.3977 1.9689,-1.6428 6.0992,-2.1291 1.9777,-0.2329 11.8341,-0.3237 14.4579,-0.1332 2.6597,0.1931 4.9825,0.4899 5.8717,0.7504 1.5624,0.4577 2.5938,1.6134 4.0465,4.5343 0.8727,1.7544 1.6721,3.7475 2.5182,6.2772 0.4214,1.2599 0.516,1.4397 0.6546,1.2441 0.115,-0.1624 0.1414,-0.615 0.091,-1.561 l -0.071,-1.3323 0.4052,-0.2163 c 0.8449,-0.4509 2.9239,-0.204 3.8186,0.4535 0.4885,0.3589 0.5019,0.6263 0.075,1.4953 -0.3962,0.8069 -0.6251,0.9477 -1.5407,0.9477 -0.5999,0 -0.756,0.056 -1.0444,0.3722 -0.433,0.4754 -0.8892,1.2589 -0.8898,1.5282 0,0.1148 0.2711,0.4802 0.6031,0.8121 1.3971,1.3962 1.7899,2.671 1.7917,5.8139 0.01,5.2207 -0.2534,15.649 -0.3929,15.986 -0.081,0.1949 -0.3068,0.4842 -0.5023,0.6428 -0.3288,0.267 -0.5109,0.2885 -2.4444,0.2885 -1.1492,0 -2.1963,-0.059 -2.3272,-0.1314 -0.3398,-0.1877 -0.6628,-1.1143 -0.6628,-1.9014 l 0,-0.674 -16.2615,0 -16.2616,0 0,0.674 c 0,0.7871 -0.3231,1.7137 -0.6629,1.9014 -0.1309,0.072 -1.1781,0.1314 -2.3271,0.1314 -1.9335,0 -2.1157,-0.021 -2.4446,-0.2885 z m 31.0727,-5.9532 c 0.2885,-0.082 0.6898,-0.2711 0.8917,-0.4192 0.4153,-0.3047 1.6656,-1.8118 1.6656,-2.0078 0,-0.08 -4.5011,-0.1283 -11.9339,-0.1283 -8.8589,0 -11.9339,0.04 -11.9339,0.1545 0,0.2182 1.1131,1.5371 1.5978,1.8933 0.8867,0.6515 0.8114,0.6467 10.2705,0.6523 6.1358,0.01 9.0813,-0.042 9.4422,-0.1448 z m 11.0845,-0.1192 c 0.1817,-0.2972 0.1587,-2.0797 -0.029,-2.2737 -0.1076,-0.111 -0.7458,-0.1624 -2.0187,-0.1624 -2.1489,0 -2.0204,-0.091 -2.0204,1.4254 0,0.8048 0.044,1.0249 0.2294,1.1408 0.1395,0.087 0.9132,0.1296 1.9722,0.1082 1.3796,-0.028 1.7685,-0.078 1.8668,-0.2383 z m -36.9335,-0.079 c 0.1033,-0.2777 0.1033,-1.8657 0,-2.1433 -0.068,-0.1819 -0.3715,-0.2141 -2.0186,-0.2141 -1.6472,0 -1.9511,0.032 -2.0187,0.2141 -0.1437,0.3864 -0.086,2.0263 0.078,2.195 0.1076,0.111 0.7458,0.1623 2.0186,0.1623 1.5763,0 1.8736,-0.033 1.9409,-0.214 z m 35.2442,-9.0107 c 1.1284,-0.3489 2.0069,-1.5666 1.674,-2.3205 -0.6209,-1.4063 -3.5261,-0.1914 -3.528,1.4754 0,0.8193 0.7825,1.1764 1.854,0.8451 z m -36.2877,-0.4396 c 1.4734,-0.6353 0.01,-2.9221 -1.8744,-2.9221 -1.3729,0 -1.5332,1.4916 -0.2653,2.4686 0.3321,0.2558 1.2223,0.6273 1.5294,0.6382 0.093,0.01 0.3672,-0.08 0.6103,-0.1847 z m 32.5,-0.7348 c 0.8468,-0.3854 1.9058,-1.4333 2.279,-2.255 0.5598,-1.2326 0.3162,-2.3623 -0.6519,-3.0234 -0.4618,-0.3154 -0.6588,-0.3601 -1.5887,-0.3601 -0.9345,0 -1.1659,0.053 -1.9353,0.444 -1.4094,0.716 -2.4647,2.1787 -2.4647,3.416 0,0.644 0.5524,1.5107 1.1871,1.8625 0.507,0.2809 0.712,0.3152 1.5668,0.2616 0.5958,-0.037 1.2296,-0.1736 1.6077,-0.3456 z m -27.0777,-0.2321 c 2.306,-0.9941 1.7329,-3.9582 -1.0487,-5.4238 -1.0029,-0.5285 -2.4306,-0.5996 -3.2428,-0.1615 -0.7427,0.4007 -1.0681,0.8669 -1.154,1.6538 -0.2641,2.418 3.183,4.9068 5.4455,3.9315 z m 29.0714,-9.1621 c -0.2465,-0.8499 -1.5947,-4.3482 -1.995,-5.1767 -1.1994,-2.4822 -2.0429,-3.6672 -2.9509,-4.1453 -1.4936,-0.7863 -8.8807,-1.2175 -16.2282,-0.9472 -6.297,0.2316 -7.4412,0.417 -8.4401,1.3673 -1.0135,0.9641 -2.9483,4.9176 -4.1578,8.4959 l -0.2401,0.7105 17.0502,0 17.0501,0 -0.088,-0.3045 z"
         style="fill:#ffffff" />
    </g>
  </g>
</svg>
