<?xml version="1.0" encoding="UTF-8" standalone="no"?>
<!-- Created with Inkscape (http://www.inkscape.org/) -->

<svg
   xmlns:dc="http://purl.org/dc/elements/1.1/"
   xmlns:cc="http://creativecommons.org/ns#"
   xmlns:rdf="http://www.w3.org/1999/02/22-rdf-syntax-ns#"
   xmlns:svg="http://www.w3.org/2000/svg"
   xmlns="http://www.w3.org/2000/svg"
   xmlns:sodipodi="http://sodipodi.sourceforge.net/DTD/sodipodi-0.dtd"
   xmlns:inkscape="http://www.inkscape.org/namespaces/inkscape"
   width="512"
   height="512"
   viewBox="0 0 511.99999 512.00001"
   id="svg27714"
   version="1.1"
   inkscape:version="0.92.2 (5c3e80d, 2017-08-06)"
   sodipodi:docname="Vehiculo.svg"
   inkscape:export-filename="C:\Users\Soporte\Desktop\FREDDY APP\BOTONES FINALES\1\2 STATUS Y LOCALIZACION\ICO MAPA\Vehiculo.png"
   inkscape:export-xdpi="96"
   inkscape:export-ydpi="96">
  <defs
     id="defs27716">
    <filter
       inkscape:label="Matte Bevel"
       inkscape:menu="Bevels"
       inkscape:menu-tooltip="Soft, pastel-colored, blurry bevel"
       x="-0.11"
       y="-0.059999999"
       width="1.2"
       height="1.11"
       style="color-interpolation-filters:sRGB"
       id="filter26682-6">
      <feGaussianBlur
         stdDeviation="1"
         result="result6"
         id="feGaussianBlur26684-3" />
      <feComposite
         operator="in"
         in="result6"
         in2="result6"
         result="result7"
         id="feComposite26686-9" />
      <feGaussianBlur
         stdDeviation="8"
         result="result3"
         in="result7"
         id="feGaussianBlur26688-3" />
      <feComposite
         in2="result7"
         operator="over"
         result="result91"
         id="feComposite26690-6" />
      <feComposite
         operator="in"
         in="result3"
         result="result5"
         in2="result91"
         id="feComposite26692-1" />
      <feColorMatrix
         values="0 0 0 -1 0 0 0 0 -1 0 0 0 0 -1 0 0 0 0 1 0 "
         result="result4"
         id="feColorMatrix26694-1" />
      <feSpecularLighting
         surfaceScale="3"
         specularConstant="2"
         specularExponent="45"
         in="result4"
         result="result11"
         id="feSpecularLighting26696-8">
        <fePointLight
           x="-5000"
           y="-10000"
           z="20000"
           id="fePointLight26698-2" />
      </feSpecularLighting>
      <feComposite
         k4="0"
         k3="0"
         k2="0"
         operator="arithmetic"
         k1="1"
         in2="result4"
         result="result10"
         id="feComposite26700-4" />
      <feComposite
         k4="0"
         k1="0"
         operator="arithmetic"
         k2="0.5"
         k3="1"
         in="result5"
         result="result8"
         in2="result10"
         id="feComposite26702-9" />
      <feComposite
         result="result9"
         in2="result8"
         id="feComposite26704-2" />
      <feBlend
         mode="normal"
         in2="result9"
         id="feBlend26706-3" />
    </filter>
    <filter
       inkscape:label="Matte Bevel"
       inkscape:menu="Bevels"
       inkscape:menu-tooltip="Soft, pastel-colored, blurry bevel"
       x="-0.11"
       y="-0.059999999"
       width="1.2"
       height="1.11"
       style="color-interpolation-filters:sRGB"
       id="filter26551-0">
      <feGaussianBlur
         stdDeviation="1"
         result="result6"
         id="feGaussianBlur26553-5" />
      <feComposite
         operator="in"
         in="result6"
         in2="result6"
         result="result7"
         id="feComposite26555-7" />
      <feGaussianBlur
         stdDeviation="8"
         result="result3"
         in="result7"
         id="feGaussianBlur26557-1" />
      <feComposite
         in2="result7"
         operator="over"
         result="result91"
         id="feComposite26559-8" />
      <feComposite
         operator="in"
         in="result3"
         result="result5"
         in2="result91"
         id="feComposite26561-3" />
      <feColorMatrix
         values="0 0 0 -1 0 0 0 0 -1 0 0 0 0 -1 0 0 0 0 1 0 "
         result="result4"
         id="feColorMatrix26563-8" />
      <feSpecularLighting
         surfaceScale="3"
         specularConstant="2"
         specularExponent="45"
         in="result4"
         result="result11"
         id="feSpecularLighting26565-2">
        <fePointLight
           x="-5000"
           y="-10000"
           z="20000"
           id="fePointLight26567-1" />
      </feSpecularLighting>
      <feComposite
         k4="0"
         k3="0"
         k2="0"
         operator="arithmetic"
         k1="1"
         in2="result4"
         result="result10"
         id="feComposite26569-1" />
      <feComposite
         k4="0"
         k1="0"
         operator="arithmetic"
         k2="0.5"
         k3="1"
         in="result5"
         result="result8"
         in2="result10"
         id="feComposite26571-6" />
      <feComposite
         result="result9"
         in2="result8"
         id="feComposite26573-8" />
      <feBlend
         mode="normal"
         in2="result9"
         id="feBlend26575-3" />
    </filter>
    <inkscape:path-effect
       effect="spiro"
       id="path-effect25611-9"
       is_visible="true" />
    <filter
       inkscape:label="Matte Bevel"
       inkscape:menu="Bevels"
       inkscape:menu-tooltip="Soft, pastel-colored, blurry bevel"
       x="-0.11"
       y="-0.059999999"
       width="1.2"
       height="1.11"
       style="color-interpolation-filters:sRGB"
       id="filter26899-4">
      <feGaussianBlur
         stdDeviation="1"
         result="result6"
         id="feGaussianBlur26901-3" />
      <feComposite
         operator="in"
         in="result6"
         in2="result6"
         result="result7"
         id="feComposite26903-8" />
      <feGaussianBlur
         stdDeviation="8"
         result="result3"
         in="result7"
         id="feGaussianBlur26905-2" />
      <feComposite
         in2="result7"
         operator="over"
         result="result91"
         id="feComposite26907-0" />
      <feComposite
         operator="in"
         in="result3"
         result="result5"
         in2="result91"
         id="feComposite26909-9" />
      <feColorMatrix
         values="0 0 0 -1 0 0 0 0 -1 0 0 0 0 -1 0 0 0 0 1 0 "
         result="result4"
         id="feColorMatrix26911-3" />
      <feSpecularLighting
         surfaceScale="3"
         specularConstant="2"
         specularExponent="45"
         in="result4"
         result="result11"
         id="feSpecularLighting26913-3">
        <fePointLight
           x="-5000"
           y="-10000"
           z="20000"
           id="fePointLight26915-4" />
      </feSpecularLighting>
      <feComposite
         k4="0"
         k3="0"
         k2="0"
         operator="arithmetic"
         k1="1"
         in2="result4"
         result="result10"
         id="feComposite26917-4" />
      <feComposite
         k4="0"
         k1="0"
         operator="arithmetic"
         k2="0.5"
         k3="1"
         in="result5"
         result="result8"
         in2="result10"
         id="feComposite26919-6" />
      <feComposite
         result="result9"
         in2="result8"
         id="feComposite26921-5" />
      <feBlend
         mode="normal"
         in2="result9"
         id="feBlend26923-7" />
    </filter>
    <filter
       inkscape:label="Matte Bevel"
       inkscape:menu="Bevels"
       inkscape:menu-tooltip="Soft, pastel-colored, blurry bevel"
       x="-0.11"
       y="-0.059999999"
       width="1.2"
       height="1.11"
       style="color-interpolation-filters:sRGB"
       id="filter26818-5">
      <feGaussianBlur
         stdDeviation="1"
         result="result6"
         id="feGaussianBlur26820-3" />
      <feComposite
         operator="in"
         in="result6"
         in2="result6"
         result="result7"
         id="feComposite26822-4" />
      <feGaussianBlur
         stdDeviation="8"
         result="result3"
         in="result7"
         id="feGaussianBlur26824-3" />
      <feComposite
         in2="result7"
         operator="over"
         result="result91"
         id="feComposite26826-4" />
      <feComposite
         operator="in"
         in="result3"
         result="result5"
         in2="result91"
         id="feComposite26828-3" />
      <feColorMatrix
         values="0 0 0 -1 0 0 0 0 -1 0 0 0 0 -1 0 0 0 0 1 0 "
         result="result4"
         id="feColorMatrix26830-5"
         type="saturate" />
      <feSpecularLighting
         surfaceScale="3"
         specularConstant="2"
         specularExponent="45"
         in="result4"
         result="result11"
         id="feSpecularLighting26832-3">
        <fePointLight
           x="-5000"
           y="-10000"
           z="20000"
           id="fePointLight26834-4" />
      </feSpecularLighting>
      <feComposite
         k4="0"
         k3="0"
         k2="0"
         operator="arithmetic"
         k1="1"
         in2="result4"
         result="result10"
         id="feComposite26836-0" />
      <feComposite
         k4="0"
         k1="0"
         operator="arithmetic"
         k2="0.5"
         k3="1"
         in="result5"
         result="result8"
         in2="result10"
         id="feComposite26838-0" />
      <feComposite
         result="result9"
         in2="result8"
         id="feComposite26840-50"
         in="result8" />
      <feBlend
         mode="normal"
         in2="result9"
         id="feBlend26842-1" />
    </filter>
    <filter
       inkscape:label="Matte Bevel"
       inkscape:menu="Bevels"
       inkscape:menu-tooltip="Soft, pastel-colored, blurry bevel"
       x="-0.11"
       y="-0.059999999"
       width="1.2"
       height="1.11"
       style="color-interpolation-filters:sRGB"
       id="filter26682">
      <feGaussianBlur
         stdDeviation="1"
         result="result6"
         id="feGaussianBlur26684" />
      <feComposite
         operator="in"
         in="result6"
         in2="result6"
         result="result7"
         id="feComposite26686" />
      <feGaussianBlur
         stdDeviation="8"
         result="result3"
         in="result7"
         id="feGaussianBlur26688" />
      <feComposite
         in2="result7"
         operator="over"
         result="result91"
         id="feComposite26690" />
      <feComposite
         operator="in"
         in="result3"
         result="result5"
         in2="result91"
         id="feComposite26692" />
      <feColorMatrix
         values="0 0 0 -1 0 0 0 0 -1 0 0 0 0 -1 0 0 0 0 1 0 "
         result="result4"
         id="feColorMatrix26694" />
      <feSpecularLighting
         surfaceScale="3"
         specularConstant="2"
         specularExponent="45"
         in="result4"
         result="result11"
         id="feSpecularLighting26696">
        <fePointLight
           x="-5000"
           y="-10000"
           z="20000"
           id="fePointLight26698" />
      </feSpecularLighting>
      <feComposite
         k4="0"
         k3="0"
         k2="0"
         operator="arithmetic"
         k1="1"
         in2="result4"
         result="result10"
         id="feComposite26700" />
      <feComposite
         k4="0"
         k1="0"
         operator="arithmetic"
         k2="0.5"
         k3="1"
         in="result5"
         result="result8"
         in2="result10"
         id="feComposite26702" />
      <feComposite
         result="result9"
         in2="result8"
         id="feComposite26704" />
      <feBlend
         mode="normal"
         in2="result9"
         id="feBlend26706" />
    </filter>
    <filter
       inkscape:label="Matte Bevel"
       inkscape:menu="Bevels"
       inkscape:menu-tooltip="Soft, pastel-colored, blurry bevel"
       x="-0.11"
       y="-0.059999999"
       width="1.2"
       height="1.11"
       style="color-interpolation-filters:sRGB"
       id="filter26551">
      <feGaussianBlur
         stdDeviation="1"
         result="result6"
         id="feGaussianBlur26553" />
      <feComposite
         operator="in"
         in="result6"
         in2="result6"
         result="result7"
         id="feComposite26555" />
      <feGaussianBlur
         stdDeviation="8"
         result="result3"
         in="result7"
         id="feGaussianBlur26557" />
      <feComposite
         in2="result7"
         operator="over"
         result="result91"
         id="feComposite26559" />
      <feComposite
         operator="in"
         in="result3"
         result="result5"
         in2="result91"
         id="feComposite26561" />
      <feColorMatrix
         values="0 0 0 -1 0 0 0 0 -1 0 0 0 0 -1 0 0 0 0 1 0 "
         result="result4"
         id="feColorMatrix26563" />
      <feSpecularLighting
         surfaceScale="3"
         specularConstant="2"
         specularExponent="45"
         in="result4"
         result="result11"
         id="feSpecularLighting26565">
        <fePointLight
           x="-5000"
           y="-10000"
           z="20000"
           id="fePointLight26567" />
      </feSpecularLighting>
      <feComposite
         k4="0"
         k3="0"
         k2="0"
         operator="arithmetic"
         k1="1"
         in2="result4"
         result="result10"
         id="feComposite26569" />
      <feComposite
         k4="0"
         k1="0"
         operator="arithmetic"
         k2="0.5"
         k3="1"
         in="result5"
         result="result8"
         in2="result10"
         id="feComposite26571" />
      <feComposite
         result="result9"
         in2="result8"
         id="feComposite26573" />
      <feBlend
         mode="normal"
         in2="result9"
         id="feBlend26575" />
    </filter>
    <inkscape:path-effect
       effect="spiro"
       id="path-effect25611"
       is_visible="true" />
    <filter
       inkscape:label="Matte Bevel"
       inkscape:menu="Bevels"
       inkscape:menu-tooltip="Soft, pastel-colored, blurry bevel"
       x="-0.11"
       y="-0.059999999"
       width="1.2"
       height="1.11"
       style="color-interpolation-filters:sRGB"
       id="filter26899">
      <feGaussianBlur
         stdDeviation="1"
         result="result6"
         id="feGaussianBlur26901" />
      <feComposite
         operator="in"
         in="result6"
         in2="result6"
         result="result7"
         id="feComposite26903" />
      <feGaussianBlur
         stdDeviation="8"
         result="result3"
         in="result7"
         id="feGaussianBlur26905" />
      <feComposite
         in2="result7"
         operator="over"
         result="result91"
         id="feComposite26907" />
      <feComposite
         operator="in"
         in="result3"
         result="result5"
         in2="result91"
         id="feComposite26909" />
      <feColorMatrix
         values="0 0 0 -1 0 0 0 0 -1 0 0 0 0 -1 0 0 0 0 1 0 "
         result="result4"
         id="feColorMatrix26911" />
      <feSpecularLighting
         surfaceScale="3"
         specularConstant="2"
         specularExponent="45"
         in="result4"
         result="result11"
         id="feSpecularLighting26913">
        <fePointLight
           x="-5000"
           y="-10000"
           z="20000"
           id="fePointLight26915" />
      </feSpecularLighting>
      <feComposite
         k4="0"
         k3="0"
         k2="0"
         operator="arithmetic"
         k1="1"
         in2="result4"
         result="result10"
         id="feComposite26917" />
      <feComposite
         k4="0"
         k1="0"
         operator="arithmetic"
         k2="0.5"
         k3="1"
         in="result5"
         result="result8"
         in2="result10"
         id="feComposite26919" />
      <feComposite
         result="result9"
         in2="result8"
         id="feComposite26921" />
      <feBlend
         mode="normal"
         in2="result9"
         id="feBlend26923" />
    </filter>
    <filter
       inkscape:label="Matte Bevel"
       inkscape:menu="Bevels"
       inkscape:menu-tooltip="Soft, pastel-colored, blurry bevel"
       x="-0.11"
       y="-0.059999999"
       width="1.2"
       height="1.11"
       style="color-interpolation-filters:sRGB"
       id="filter26818">
      <feGaussianBlur
         stdDeviation="1"
         result="result6"
         id="feGaussianBlur26820" />
      <feComposite
         operator="in"
         in="result6"
         in2="result6"
         result="result7"
         id="feComposite26822" />
      <feGaussianBlur
         stdDeviation="8"
         result="result3"
         in="result7"
         id="feGaussianBlur26824" />
      <feComposite
         in2="result7"
         operator="over"
         result="result91"
         id="feComposite26826" />
      <feComposite
         operator="in"
         in="result3"
         result="result5"
         in2="result91"
         id="feComposite26828" />
      <feColorMatrix
         values="0 0 0 -1 0 0 0 0 -1 0 0 0 0 -1 0 0 0 0 1 0 "
         result="result4"
         id="feColorMatrix26830" />
      <feSpecularLighting
         surfaceScale="3"
         specularConstant="2"
         specularExponent="45"
         in="result4"
         result="result11"
         id="feSpecularLighting26832">
        <fePointLight
           x="-5000"
           y="-10000"
           z="20000"
           id="fePointLight26834" />
      </feSpecularLighting>
      <feComposite
         k4="0"
         k3="0"
         k2="0"
         operator="arithmetic"
         k1="1"
         in2="result4"
         result="result10"
         id="feComposite26836" />
      <feComposite
         k4="0"
         k1="0"
         operator="arithmetic"
         k2="0.5"
         k3="1"
         in="result5"
         result="result8"
         in2="result10"
         id="feComposite26838" />
      <feComposite
         result="result9"
         in2="result8"
         id="feComposite26840" />
      <feBlend
         mode="normal"
         in2="result9"
         id="feBlend26842" />
    </filter>
    <filter
       inkscape:label="Raised Border"
       inkscape:menu="Bevels"
       inkscape:menu-tooltip="Strongly raised border around a flat surface"
       height="1.1100000000000001"
       width="1.2"
       y="-0.059999999999999998"
       x="-0.11"
       style="color-interpolation-filters:sRGB;"
       id="filter4963">
      <feGaussianBlur
         stdDeviation="4"
         result="result1"
         id="feGaussianBlur4965" />
      <feComposite
         in="result1"
         in2="result1"
         result="result4"
         operator="in"
         id="feComposite4967" />
      <feGaussianBlur
         stdDeviation="2"
         result="result6"
         in="result4"
         id="feGaussianBlur4969" />
      <feComposite
         operator="xor"
         in="result6"
         in2="result4"
         result="result8"
         id="feComposite4971" />
      <feComposite
         operator="atop"
         result="fbSourceGraphic"
         in="result4"
         in2="result8"
         id="feComposite4973" />
      <feSpecularLighting
         specularExponent="10"
         specularConstant="1.3"
         surfaceScale="3"
         lighting-color="rgb(255,255,255)"
         result="result1"
         in="fbSourceGraphic"
         id="feSpecularLighting4975">
        <feDistantLight
           azimuth="235"
           elevation="55"
           id="feDistantLight4977" />
      </feSpecularLighting>
      <feComposite
         operator="atop"
         result="result2"
         in="result1"
         in2="fbSourceGraphic"
         id="feComposite4979" />
      <feComposite
         k3="1"
         k2="1"
         operator="arithmetic"
         result="result4"
         in="fbSourceGraphic"
         in2="result2"
         id="feComposite4981" />
      <feComposite
         operator="over"
         in="result4"
         in2="SourceGraphic"
         id="feComposite4983" />
      <feBlend
         mode="multiply"
         in2="result2"
         id="feBlend4985" />
    </filter>
  </defs>
  <sodipodi:namedview
     id="base"
     pagecolor="#ffffff"
     bordercolor="#666666"
     borderopacity="1.0"
     inkscape:pageopacity="0.0"
     inkscape:pageshadow="2"
     inkscape:zoom="1.0585938"
     inkscape:cx="81.712195"
     inkscape:cy="256.00001"
     inkscape:document-units="px"
     inkscape:current-layer="layer1"
     showgrid="false"
     units="px"
     inkscape:window-width="1360"
     inkscape:window-height="706"
     inkscape:window-x="-8"
     inkscape:window-y="-8"
     inkscape:window-maximized="1" />
  <metadata
     id="metadata27719">
    <rdf:RDF>
      <cc:Work
         rdf:about="">
        <dc:format>image/svg+xml</dc:format>
        <dc:type
           rdf:resource="http://purl.org/dc/dcmitype/StillImage" />
        <dc:title />
      </cc:Work>
    </rdf:RDF>
  </metadata>
  <g
     inkscape:label="Capa 1"
     inkscape:groupmode="layer"
     id="layer1"
     transform="translate(0,-540.36216)">
    <g
       id="g3396"
       transform="matrix(1.1681472,0,0,1.1681472,-912.96336,482.93444)"
       inkscape:export-filename="/home/canaima/Escritorio/MALLKU/APP/ICONOS Y BOTONES APP/Para enviar a Freddy/localizacion_carro.png"
       inkscape:export-xdpi="90.000008"
       inkscape:export-ydpi="90.000008"
       style="fill:#ff0000">
      <path
         sodipodi:nodetypes="ccsssssscccssssssss"
         inkscape:connector-curvature="0"
         id="path2996-1-0"
         d="m 990.84498,486.04106 c -37.42137,-40.32374 -68.58521,-99.24308 -100.169,-126.96871 -7.46342,-6.5307 -16.84074,-15.58085 -20.83848,-20.11144 -42.35881,-48.00462 -55.02153,-115.56643 -32.88053,-175.43378 13.66427,-36.94698 39.14973,-67.851881 73.42533,-89.039067 21.00993,-12.987126 48.00591,-21.981776 73.53791,-24.501708 51.63839,-5.096564 103.40139,13.616043 140.34109,50.734105 58.2462,58.5274 67.6235,150.00405 22.4002,218.51437 -13.4571,20.38663 -50.7855,50.90289 -50.7855,50.90289 l -95.0635,117.04889 c 0,0 -5.122,1.11692 -9.96752,-1.14555 z m 33.04152,-120.10848 c 69.3351,-11.35953 120.0347,-71.2002 120.0024,-141.63887 -0.025,-54.51283 -30.732,-103.84689 -79.7348,-128.102167 -30.6575,-15.174814 -65.90125,-18.83878 -99.2443,-10.317528 -62.9803,16.095455 -107.35831,73.297215 -107.38814,138.419695 -0.0252,54.98106 30.26595,103.81054 79.90593,128.80883 15.40323,7.75694 30.81713,11.9547 52.98868,14.43072 5.42781,0.60615 26.00773,-0.37806 33.47023,-1.60068 z"
         style="fill:#ff0000" />
      <g
         style="fill:#ff0000"
         transform="matrix(0.5012393,0,0,0.5012393,888.51004,96.12321)"
         id="g3369">
        <g
           style="fill:#ff0000"
           id="g3329">
          <path
             style="fill:#ff0000"
             inkscape:connector-curvature="0"
             d="m 447.639,244.402 c 0,-8.805 -1.988,-17.215 -5.578,-24.909 -0.37,-1.956 -0.793,-3.909 -1.322,-5.89 l -38.884,-96.365 -0.263,-0.867 C 387.987,75.862 368.629,38.37 319.543,38.37 H 131.868 c -50.296,0 -68.069,38.421 -81.972,77.776 l -40.673,96.6 C 3.343,222.167 0,232.944 0,244.402 v 29.986 c 0,4.636 0.548,9.171 1.59,13.539 C 0.577,290.566 0,293.41 0,296.408 v 89.185 c 0,13.078 10.602,23.682 23.68,23.682 h 49.14 c 13.071,0 23.673,-10.604 23.673,-23.682 v -44.599 h 257.46 v 44.599 c 0,13.078 10.604,23.682 23.683,23.682 h 46.326 c 13.083,0 23.683,-10.604 23.683,-23.682 v -89.195 c 0,-2.987 -0.583,-5.844 -1.588,-8.474 1.038,-4.375 1.588,-8.905 1.588,-13.54 v -29.981 h -0.006 z M 78.754,125.821 C 94.237,82.138 106.688,68.803 131.868,68.803 h 187.664 c 24.995,0 38.913,14.873 53.056,56.83 l 28.375,57.502 C 391.698,179.704 381.502,177.8 370.79,177.8 H 76.849 c -9.645,0 -18.862,1.551 -27.366,4.358 l 29.271,-56.337 z m 24.375,159.955 H 51.281 c -9.335,0 -16.906,-7.578 -16.906,-16.912 0,-9.337 7.571,-16.91 16.906,-16.91 h 51.848 c 9.339,0 16.91,7.573 16.91,16.91 0,9.334 -7.576,16.912 -16.91,16.912 z m 183.155,-3.387 h -120.6 c -5.913,0 -10.704,-4.794 -10.704,-10.704 0,-5.921 4.791,-10.713 10.704,-10.713 h 120.6 c 5.92,0 10.71,4.792 10.71,10.713 0,5.91 -4.79,10.704 -10.71,10.704 z m 108.767,3.387 h -51.846 c -9.343,0 -16.91,-7.578 -16.91,-16.912 0,-9.337 7.573,-16.91 16.91,-16.91 h 51.846 c 9.343,0 16.916,7.573 16.916,16.91 0,9.334 -7.573,16.912 -16.916,16.912 z"
             id="path3331" />
        </g>
        <g
           style="fill:#ff0000"
           id="g3333" />
        <g
           style="fill:#ff0000"
           id="g3335" />
        <g
           style="fill:#ff0000"
           id="g3337" />
        <g
           style="fill:#ff0000"
           id="g3339" />
        <g
           style="fill:#ff0000"
           id="g3341" />
        <g
           style="fill:#ff0000"
           id="g3343" />
        <g
           style="fill:#ff0000"
           id="g3345" />
        <g
           style="fill:#ff0000"
           id="g3347" />
        <g
           style="fill:#ff0000"
           id="g3349" />
        <g
           style="fill:#ff0000"
           id="g3351" />
        <g
           style="fill:#ff0000"
           id="g3353" />
        <g
           style="fill:#ff0000"
           id="g3355" />
        <g
           style="fill:#ff0000"
           id="g3357" />
        <g
           style="fill:#ff0000"
           id="g3359" />
        <g
           style="fill:#ff0000"
           id="g3361" />
      </g>
    </g>
  </g>
</svg>
