<?xml version="1.0" encoding="UTF-8" standalone="no"?>
<!-- Created with Inkscape (http://www.inkscape.org/) -->

<svg
   xmlns:dc="http://purl.org/dc/elements/1.1/"
   xmlns:cc="http://creativecommons.org/ns#"
   xmlns:rdf="http://www.w3.org/1999/02/22-rdf-syntax-ns#"
   xmlns:svg="http://www.w3.org/2000/svg"
   xmlns="http://www.w3.org/2000/svg"
   xmlns:sodipodi="http://sodipodi.sourceforge.net/DTD/sodipodi-0.dtd"
   xmlns:inkscape="http://www.inkscape.org/namespaces/inkscape"
   width="512"
   height="512"
   viewBox="0 0 511.99999 512.00001"
   id="svg27714"
   version="1.1"
   inkscape:version="0.48.3.1 r9886"
   sodipodi:docname="lock_inactivo.svg">
  <defs
     id="defs27716">
    <filter
       inkscape:label="Matte Bevel"
       inkscape:menu="Bevels"
       inkscape:menu-tooltip="Soft, pastel-colored, blurry bevel"
       x="-0.11"
       y="-0.059999999"
       width="1.2"
       height="1.11"
       style="color-interpolation-filters:sRGB"
       id="filter26682-6">
      <feGaussianBlur
         stdDeviation="1"
         result="result6"
         id="feGaussianBlur26684-3" />
      <feComposite
         operator="in"
         in="result6"
         in2="result6"
         result="result7"
         id="feComposite26686-9" />
      <feGaussianBlur
         stdDeviation="8"
         result="result3"
         in="result7"
         id="feGaussianBlur26688-3" />
      <feComposite
         in2="result7"
         operator="over"
         result="result91"
         id="feComposite26690-6" />
      <feComposite
         operator="in"
         in="result3"
         result="result5"
         in2="result91"
         id="feComposite26692-1" />
      <feColorMatrix
         values="0 0 0 -1 0 0 0 0 -1 0 0 0 0 -1 0 0 0 0 1 0 "
         result="result4"
         id="feColorMatrix26694-1" />
      <feSpecularLighting
         surfaceScale="3"
         specularConstant="2"
         specularExponent="45"
         in="result4"
         result="result11"
         id="feSpecularLighting26696-8">
        <fePointLight
           x="-5000"
           y="-10000"
           z="20000"
           id="fePointLight26698-2" />
      </feSpecularLighting>
      <feComposite
         k4="0"
         k3="0"
         k2="0"
         operator="arithmetic"
         k1="1"
         in2="result4"
         result="result10"
         id="feComposite26700-4" />
      <feComposite
         k4="0"
         k1="0"
         operator="arithmetic"
         k2="0.5"
         k3="1"
         in="result5"
         result="result8"
         in2="result10"
         id="feComposite26702-9" />
      <feComposite
         result="result9"
         in2="result8"
         id="feComposite26704-2" />
      <feBlend
         mode="normal"
         in2="result9"
         id="feBlend26706-3" />
    </filter>
    <filter
       inkscape:label="Matte Bevel"
       inkscape:menu="Bevels"
       inkscape:menu-tooltip="Soft, pastel-colored, blurry bevel"
       x="-0.11"
       y="-0.059999999"
       width="1.2"
       height="1.11"
       style="color-interpolation-filters:sRGB"
       id="filter26551-0">
      <feGaussianBlur
         stdDeviation="1"
         result="result6"
         id="feGaussianBlur26553-5" />
      <feComposite
         operator="in"
         in="result6"
         in2="result6"
         result="result7"
         id="feComposite26555-7" />
      <feGaussianBlur
         stdDeviation="8"
         result="result3"
         in="result7"
         id="feGaussianBlur26557-1" />
      <feComposite
         in2="result7"
         operator="over"
         result="result91"
         id="feComposite26559-8" />
      <feComposite
         operator="in"
         in="result3"
         result="result5"
         in2="result91"
         id="feComposite26561-3" />
      <feColorMatrix
         values="0 0 0 -1 0 0 0 0 -1 0 0 0 0 -1 0 0 0 0 1 0 "
         result="result4"
         id="feColorMatrix26563-8" />
      <feSpecularLighting
         surfaceScale="3"
         specularConstant="2"
         specularExponent="45"
         in="result4"
         result="result11"
         id="feSpecularLighting26565-2">
        <fePointLight
           x="-5000"
           y="-10000"
           z="20000"
           id="fePointLight26567-1" />
      </feSpecularLighting>
      <feComposite
         k4="0"
         k3="0"
         k2="0"
         operator="arithmetic"
         k1="1"
         in2="result4"
         result="result10"
         id="feComposite26569-1" />
      <feComposite
         k4="0"
         k1="0"
         operator="arithmetic"
         k2="0.5"
         k3="1"
         in="result5"
         result="result8"
         in2="result10"
         id="feComposite26571-6" />
      <feComposite
         result="result9"
         in2="result8"
         id="feComposite26573-8" />
      <feBlend
         mode="normal"
         in2="result9"
         id="feBlend26575-3" />
    </filter>
    <inkscape:path-effect
       effect="spiro"
       id="path-effect25611-9"
       is_visible="true" />
    <filter
       inkscape:label="Matte Bevel"
       inkscape:menu="Bevels"
       inkscape:menu-tooltip="Soft, pastel-colored, blurry bevel"
       x="-0.11"
       y="-0.059999999"
       width="1.2"
       height="1.11"
       style="color-interpolation-filters:sRGB"
       id="filter26899-4">
      <feGaussianBlur
         stdDeviation="1"
         result="result6"
         id="feGaussianBlur26901-3" />
      <feComposite
         operator="in"
         in="result6"
         in2="result6"
         result="result7"
         id="feComposite26903-8" />
      <feGaussianBlur
         stdDeviation="8"
         result="result3"
         in="result7"
         id="feGaussianBlur26905-2" />
      <feComposite
         in2="result7"
         operator="over"
         result="result91"
         id="feComposite26907-0" />
      <feComposite
         operator="in"
         in="result3"
         result="result5"
         in2="result91"
         id="feComposite26909-9" />
      <feColorMatrix
         values="0 0 0 -1 0 0 0 0 -1 0 0 0 0 -1 0 0 0 0 1 0 "
         result="result4"
         id="feColorMatrix26911-3" />
      <feSpecularLighting
         surfaceScale="3"
         specularConstant="2"
         specularExponent="45"
         in="result4"
         result="result11"
         id="feSpecularLighting26913-3">
        <fePointLight
           x="-5000"
           y="-10000"
           z="20000"
           id="fePointLight26915-4" />
      </feSpecularLighting>
      <feComposite
         k4="0"
         k3="0"
         k2="0"
         operator="arithmetic"
         k1="1"
         in2="result4"
         result="result10"
         id="feComposite26917-4" />
      <feComposite
         k4="0"
         k1="0"
         operator="arithmetic"
         k2="0.5"
         k3="1"
         in="result5"
         result="result8"
         in2="result10"
         id="feComposite26919-6" />
      <feComposite
         result="result9"
         in2="result8"
         id="feComposite26921-5" />
      <feBlend
         mode="normal"
         in2="result9"
         id="feBlend26923-7" />
    </filter>
    <filter
       inkscape:label="Matte Bevel"
       inkscape:menu="Bevels"
       inkscape:menu-tooltip="Soft, pastel-colored, blurry bevel"
       x="-0.11"
       y="-0.059999999"
       width="1.2"
       height="1.11"
       style="color-interpolation-filters:sRGB"
       id="filter26818-5">
      <feGaussianBlur
         stdDeviation="1"
         result="result6"
         id="feGaussianBlur26820-3" />
      <feComposite
         operator="in"
         in="result6"
         in2="result6"
         result="result7"
         id="feComposite26822-4" />
      <feGaussianBlur
         stdDeviation="8"
         result="result3"
         in="result7"
         id="feGaussianBlur26824-3" />
      <feComposite
         in2="result7"
         operator="over"
         result="result91"
         id="feComposite26826-4" />
      <feComposite
         operator="in"
         in="result3"
         result="result5"
         in2="result91"
         id="feComposite26828-3" />
      <feColorMatrix
         values="0 0 0 -1 0 0 0 0 -1 0 0 0 0 -1 0 0 0 0 1 0 "
         result="result4"
         id="feColorMatrix26830-5"
         type="saturate" />
      <feSpecularLighting
         surfaceScale="3"
         specularConstant="2"
         specularExponent="45"
         in="result4"
         result="result11"
         id="feSpecularLighting26832-3">
        <fePointLight
           x="-5000"
           y="-10000"
           z="20000"
           id="fePointLight26834-4" />
      </feSpecularLighting>
      <feComposite
         k4="0"
         k3="0"
         k2="0"
         operator="arithmetic"
         k1="1"
         in2="result4"
         result="result10"
         id="feComposite26836-0" />
      <feComposite
         k4="0"
         k1="0"
         operator="arithmetic"
         k2="0.5"
         k3="1"
         in="result5"
         result="result8"
         in2="result10"
         id="feComposite26838-0" />
      <feComposite
         result="result9"
         in2="result8"
         id="feComposite26840-50"
         in="result8" />
      <feBlend
         mode="normal"
         in2="result9"
         id="feBlend26842-1" />
    </filter>
    <filter
       inkscape:label="Matte Bevel"
       inkscape:menu="Bevels"
       inkscape:menu-tooltip="Soft, pastel-colored, blurry bevel"
       x="-0.11"
       y="-0.059999999"
       width="1.2"
       height="1.11"
       style="color-interpolation-filters:sRGB"
       id="filter26682">
      <feGaussianBlur
         stdDeviation="1"
         result="result6"
         id="feGaussianBlur26684" />
      <feComposite
         operator="in"
         in="result6"
         in2="result6"
         result="result7"
         id="feComposite26686" />
      <feGaussianBlur
         stdDeviation="8"
         result="result3"
         in="result7"
         id="feGaussianBlur26688" />
      <feComposite
         in2="result7"
         operator="over"
         result="result91"
         id="feComposite26690" />
      <feComposite
         operator="in"
         in="result3"
         result="result5"
         in2="result91"
         id="feComposite26692" />
      <feColorMatrix
         values="0 0 0 -1 0 0 0 0 -1 0 0 0 0 -1 0 0 0 0 1 0 "
         result="result4"
         id="feColorMatrix26694" />
      <feSpecularLighting
         surfaceScale="3"
         specularConstant="2"
         specularExponent="45"
         in="result4"
         result="result11"
         id="feSpecularLighting26696">
        <fePointLight
           x="-5000"
           y="-10000"
           z="20000"
           id="fePointLight26698" />
      </feSpecularLighting>
      <feComposite
         k4="0"
         k3="0"
         k2="0"
         operator="arithmetic"
         k1="1"
         in2="result4"
         result="result10"
         id="feComposite26700" />
      <feComposite
         k4="0"
         k1="0"
         operator="arithmetic"
         k2="0.5"
         k3="1"
         in="result5"
         result="result8"
         in2="result10"
         id="feComposite26702" />
      <feComposite
         result="result9"
         in2="result8"
         id="feComposite26704" />
      <feBlend
         mode="normal"
         in2="result9"
         id="feBlend26706" />
    </filter>
    <filter
       inkscape:label="Matte Bevel"
       inkscape:menu="Bevels"
       inkscape:menu-tooltip="Soft, pastel-colored, blurry bevel"
       x="-0.11"
       y="-0.059999999"
       width="1.2"
       height="1.11"
       style="color-interpolation-filters:sRGB"
       id="filter26551">
      <feGaussianBlur
         stdDeviation="1"
         result="result6"
         id="feGaussianBlur26553" />
      <feComposite
         operator="in"
         in="result6"
         in2="result6"
         result="result7"
         id="feComposite26555" />
      <feGaussianBlur
         stdDeviation="8"
         result="result3"
         in="result7"
         id="feGaussianBlur26557" />
      <feComposite
         in2="result7"
         operator="over"
         result="result91"
         id="feComposite26559" />
      <feComposite
         operator="in"
         in="result3"
         result="result5"
         in2="result91"
         id="feComposite26561" />
      <feColorMatrix
         values="0 0 0 -1 0 0 0 0 -1 0 0 0 0 -1 0 0 0 0 1 0 "
         result="result4"
         id="feColorMatrix26563" />
      <feSpecularLighting
         surfaceScale="3"
         specularConstant="2"
         specularExponent="45"
         in="result4"
         result="result11"
         id="feSpecularLighting26565">
        <fePointLight
           x="-5000"
           y="-10000"
           z="20000"
           id="fePointLight26567" />
      </feSpecularLighting>
      <feComposite
         k4="0"
         k3="0"
         k2="0"
         operator="arithmetic"
         k1="1"
         in2="result4"
         result="result10"
         id="feComposite26569" />
      <feComposite
         k4="0"
         k1="0"
         operator="arithmetic"
         k2="0.5"
         k3="1"
         in="result5"
         result="result8"
         in2="result10"
         id="feComposite26571" />
      <feComposite
         result="result9"
         in2="result8"
         id="feComposite26573" />
      <feBlend
         mode="normal"
         in2="result9"
         id="feBlend26575" />
    </filter>
    <inkscape:path-effect
       effect="spiro"
       id="path-effect25611"
       is_visible="true" />
    <filter
       inkscape:label="Matte Bevel"
       inkscape:menu="Bevels"
       inkscape:menu-tooltip="Soft, pastel-colored, blurry bevel"
       x="-0.11"
       y="-0.059999999"
       width="1.2"
       height="1.11"
       style="color-interpolation-filters:sRGB"
       id="filter26899">
      <feGaussianBlur
         stdDeviation="1"
         result="result6"
         id="feGaussianBlur26901" />
      <feComposite
         operator="in"
         in="result6"
         in2="result6"
         result="result7"
         id="feComposite26903" />
      <feGaussianBlur
         stdDeviation="8"
         result="result3"
         in="result7"
         id="feGaussianBlur26905" />
      <feComposite
         in2="result7"
         operator="over"
         result="result91"
         id="feComposite26907" />
      <feComposite
         operator="in"
         in="result3"
         result="result5"
         in2="result91"
         id="feComposite26909" />
      <feColorMatrix
         values="0 0 0 -1 0 0 0 0 -1 0 0 0 0 -1 0 0 0 0 1 0 "
         result="result4"
         id="feColorMatrix26911" />
      <feSpecularLighting
         surfaceScale="3"
         specularConstant="2"
         specularExponent="45"
         in="result4"
         result="result11"
         id="feSpecularLighting26913">
        <fePointLight
           x="-5000"
           y="-10000"
           z="20000"
           id="fePointLight26915" />
      </feSpecularLighting>
      <feComposite
         k4="0"
         k3="0"
         k2="0"
         operator="arithmetic"
         k1="1"
         in2="result4"
         result="result10"
         id="feComposite26917" />
      <feComposite
         k4="0"
         k1="0"
         operator="arithmetic"
         k2="0.5"
         k3="1"
         in="result5"
         result="result8"
         in2="result10"
         id="feComposite26919" />
      <feComposite
         result="result9"
         in2="result8"
         id="feComposite26921" />
      <feBlend
         mode="normal"
         in2="result9"
         id="feBlend26923" />
    </filter>
    <filter
       inkscape:label="Matte Bevel"
       inkscape:menu="Bevels"
       inkscape:menu-tooltip="Soft, pastel-colored, blurry bevel"
       x="-0.11"
       y="-0.059999999"
       width="1.2"
       height="1.11"
       style="color-interpolation-filters:sRGB"
       id="filter26818">
      <feGaussianBlur
         stdDeviation="1"
         result="result6"
         id="feGaussianBlur26820" />
      <feComposite
         operator="in"
         in="result6"
         in2="result6"
         result="result7"
         id="feComposite26822" />
      <feGaussianBlur
         stdDeviation="8"
         result="result3"
         in="result7"
         id="feGaussianBlur26824" />
      <feComposite
         in2="result7"
         operator="over"
         result="result91"
         id="feComposite26826" />
      <feComposite
         operator="in"
         in="result3"
         result="result5"
         in2="result91"
         id="feComposite26828" />
      <feColorMatrix
         values="0 0 0 -1 0 0 0 0 -1 0 0 0 0 -1 0 0 0 0 1 0 "
         result="result4"
         id="feColorMatrix26830" />
      <feSpecularLighting
         surfaceScale="3"
         specularConstant="2"
         specularExponent="45"
         in="result4"
         result="result11"
         id="feSpecularLighting26832">
        <fePointLight
           x="-5000"
           y="-10000"
           z="20000"
           id="fePointLight26834" />
      </feSpecularLighting>
      <feComposite
         k4="0"
         k3="0"
         k2="0"
         operator="arithmetic"
         k1="1"
         in2="result4"
         result="result10"
         id="feComposite26836" />
      <feComposite
         k4="0"
         k1="0"
         operator="arithmetic"
         k2="0.5"
         k3="1"
         in="result5"
         result="result8"
         in2="result10"
         id="feComposite26838" />
      <feComposite
         result="result9"
         in2="result8"
         id="feComposite26840" />
      <feBlend
         mode="normal"
         in2="result9"
         id="feBlend26842" />
    </filter>
    <filter
       inkscape:label="Raised Border"
       inkscape:menu="Bevels"
       inkscape:menu-tooltip="Strongly raised border around a flat surface"
       height="1.1100000000000001"
       width="1.2"
       y="-0.059999999999999998"
       x="-0.11"
       style="color-interpolation-filters:sRGB;"
       id="filter4963">
      <feGaussianBlur
         stdDeviation="4"
         result="result1"
         id="feGaussianBlur4965" />
      <feComposite
         in="result1"
         in2="result1"
         result="result4"
         operator="in"
         id="feComposite4967" />
      <feGaussianBlur
         stdDeviation="2"
         result="result6"
         in="result4"
         id="feGaussianBlur4969" />
      <feComposite
         operator="xor"
         in="result6"
         in2="result4"
         result="result8"
         id="feComposite4971" />
      <feComposite
         operator="atop"
         result="fbSourceGraphic"
         in="result4"
         in2="result8"
         id="feComposite4973" />
      <feSpecularLighting
         specularExponent="10"
         specularConstant="1.3"
         surfaceScale="3"
         lighting-color="rgb(255,255,255)"
         result="result1"
         in="fbSourceGraphic"
         id="feSpecularLighting4975">
        <feDistantLight
           azimuth="235"
           elevation="55"
           id="feDistantLight4977" />
      </feSpecularLighting>
      <feComposite
         operator="atop"
         result="result2"
         in="result1"
         in2="fbSourceGraphic"
         id="feComposite4979" />
      <feComposite
         k3="1"
         k2="1"
         operator="arithmetic"
         result="result4"
         in="fbSourceGraphic"
         in2="result2"
         id="feComposite4981" />
      <feComposite
         operator="over"
         in="result4"
         in2="SourceGraphic"
         id="feComposite4983" />
      <feBlend
         mode="multiply"
         in2="result2"
         id="feBlend4985" />
    </filter>
  </defs>
  <sodipodi:namedview
     id="base"
     pagecolor="#ffffff"
     bordercolor="#666666"
     borderopacity="1.0"
     inkscape:pageopacity="0.0"
     inkscape:pageshadow="2"
     inkscape:zoom="1.0585938"
     inkscape:cx="256.00001"
     inkscape:cy="256.00001"
     inkscape:document-units="px"
     inkscape:current-layer="layer1"
     showgrid="false"
     units="px"
     inkscape:window-width="1360"
     inkscape:window-height="708"
     inkscape:window-x="0"
     inkscape:window-y="28"
     inkscape:window-maximized="1" />
  <metadata
     id="metadata27719">
    <rdf:RDF>
      <cc:Work
         rdf:about="">
        <dc:format>image/svg+xml</dc:format>
        <dc:type
           rdf:resource="http://purl.org/dc/dcmitype/StillImage" />
        <dc:title></dc:title>
      </cc:Work>
    </rdf:RDF>
  </metadata>
  <g
     inkscape:label="Capa 1"
     inkscape:groupmode="layer"
     id="layer1"
     transform="translate(0,-540.36216)">
    <g
       id="g3388"
       transform="matrix(1.1681472,0,0,1.1681472,-25.171491,482.93449)"
       inkscape:export-filename="/home/canaima/Escritorio/MALLKU/APP/ICONOS Y BOTONES APP/Para enviar a Freddy/localizacion_mallku.png"
       inkscape:export-xdpi="90.000008"
       inkscape:export-ydpi="90.000008"
       style="fill:#ff0000">
      <path
         sodipodi:nodetypes="ccsssssscccssssssss"
         inkscape:connector-curvature="0"
         id="path2996"
         d="M 230.84498,486.04102 C 193.42361,445.71728 162.25977,386.79794 130.67598,359.07231 123.21256,352.54161 113.83524,343.49146 109.8375,338.96087 67.47869,290.95625 54.815967,223.39444 76.956974,163.52709 90.621237,126.58011 116.1067,95.675211 150.3823,74.488025 c 21.00993,-12.987126 48.00591,-21.981776 73.53791,-24.501708 51.63843,-5.096564 103.40141,13.616043 140.3411,50.734103 58.24615,58.5274 67.62353,150.00405 22.40019,218.51437 -13.45712,20.38663 -50.78549,50.90289 -50.78549,50.90289 l -95.06349,117.04889 c 0,0 -5.12202,1.11692 -9.96754,-1.14555 z M 263.88647,365.93254 C 333.22161,354.57301 383.92116,294.73234 383.8889,224.29367 383.86395,169.78084 353.15689,120.44678 304.15415,96.191505 273.4966,81.016691 238.25285,77.352725 204.9098,85.873977 141.9295,101.96943 97.551488,159.17119 97.521659,224.29367 c -0.02521,54.98106 30.265951,103.81054 79.905931,128.80883 15.40323,7.75694 30.81713,11.9547 52.98868,14.43072 5.42781,0.60615 26.00769,-0.37806 33.4702,-1.60068 z"
         style="fill:#ff0000" />
      <path
         inkscape:connector-curvature="0"
         id="path3063"
         d="m 302.25142,341.43522 c 0.0447,-0.10888 0.12147,-0.30482 0.17104,-0.43548 0.14894,-0.39267 -0.65471,-0.85351 -1.47588,-0.84631 -0.53093,0.003 -1.05316,0.18007 -1.97665,0.66386 -1.45482,0.76214 -2.37028,0.8596 -3.21828,0.34255 -0.62167,-0.37904 -0.64184,-0.56869 -0.10542,-0.99063 0.22507,-0.17704 0.34902,-0.36543 0.27546,-0.41867 -0.0735,-0.053 -0.30873,-0.47765 -0.52255,-0.94319 -0.55492,-1.2082 -1.13553,-1.71505 -4.51233,-3.93909 -4.17708,-2.75116 -4.54119,-2.93541 -5.64975,-2.85898 -0.77386,0.0532 -1.01531,0.15684 -1.78554,0.76529 -0.88895,0.70226 -0.89053,0.70503 -0.82951,1.46734 0.0604,0.75434 0.056,0.76252 -0.35218,0.66105 -0.90973,-0.22613 -2.414,-1.07524 -3.07378,-1.735 -0.99044,-0.99045 -1.26722,-1.65163 -1.19118,-2.84566 0.0552,-0.86683 0.16617,-1.14195 0.98255,-2.43578 0.54894,-0.86997 0.95313,-1.70319 1.00164,-2.06476 0.15524,-1.15744 -0.42854,-1.58689 -7.97894,-5.86955 -1.9318,-1.09575 -4.38994,-2.45545 -5.46246,-3.02153 -3.10458,-1.63864 -4.88769,-2.85454 -7.57655,-5.16648 -3.37084,-2.89832 -6.42298,-6.90939 -7.78389,-10.22949 -0.25961,-0.63334 -1.42374,-3.98759 -2.58698,-7.45387 -1.16323,-3.46632 -2.24797,-6.5301 -2.41055,-6.80848 -0.16259,-0.27838 -0.54116,-0.67307 -0.84125,-0.87709 -0.80173,-0.54496 -1.69238,-0.40899 -4.42332,0.67538 -2.09096,0.83028 -3.5158,1.23523 -4.35651,1.23817 -0.96783,0.003 -2.47173,-0.79481 -11.5595,-6.13519 -1.2193,-0.7165 -2.92946,-1.71391 -3.80037,-2.21644 -2.71364,-1.5658 -9.83985,-5.70404 -12.8263,-7.44829 -0.78384,-0.45782 -3.5985,-2.09634 -6.2548,-3.6412 -2.6563,-1.54486 -5.64911,-3.28843 -6.65067,-3.87459 -1.00156,-0.58613 -2.35129,-1.37169 -2.99938,-1.74567 -0.6481,-0.374 -1.46757,-0.9412 -1.82104,-1.26048 -0.35344,-0.31927 -1.19487,-0.92627 -1.86983,-1.34891 -0.67497,-0.42263 -1.22722,-0.8221 -1.22722,-0.88773 0,-0.0656 0.40975,-0.16297 0.91051,-0.21636 0.50079,-0.0534 1.65873,-0.2655 2.57318,-0.4714 0.91447,-0.2059 2.09019,-0.41961 2.61277,-0.47492 0.52256,-0.0553 3.9785,-0.41982 7.67992,-0.81008 3.70143,-0.39024 7.15438,-0.78513 7.67323,-0.8775 1.90377,-0.33897 2.39288,-0.9716 1.55609,-2.01265 -0.51279,-0.63796 -1.52022,-1.28586 -13.90062,-8.93977 -4.44169,-2.74598 -8.88232,-5.51649 -9.86807,-6.15669 -2.05151,-1.33236 -3.79459,-2.87018 -4.86044,-4.28806 -0.92696,-1.23314 -1.98626,-3.46162 -2.42905,-5.11008 -1.21341,-4.51738 -2.38991,-8.84488 -3.50859,-12.9055 -0.70779,-2.5692 -1.8109,-6.59522 -2.45136,-8.94671 -0.64047,-2.35151 -1.28576,-4.63172 -1.43399,-5.06718 -0.51859,-1.52351 -1.31134,-2.38953 -3.55548,-3.88426 -1.52527,-1.01591 -3.74525,-3.34004 -4.61458,-4.83108 -0.84499,-1.44927 -1.4032,-3.01296 -2.42849,-6.80289 -0.40053,-1.48056 -0.93515,-3.44015 -1.18801,-4.35462 -0.25287,-0.91445 -1.35377,-4.94694 -2.44644,-8.96109 -1.09267,-4.01413 -2.08836,-7.58665 -2.21266,-7.93897 -0.44357,-1.25718 -1.01717,-1.91815 -2.85955,-3.29507 -3.93342,-2.9397 -5.44356,-5.53078 -7.42604,-12.74151 -0.29929,-1.08864 -1.12937,-4.04582 -1.84461,-6.57148 -0.71524,-2.52569 -1.49863,-5.3047 -1.74084,-6.17562 -0.91972,-3.30679 -1.76358,-6.30708 -2.85043,-10.13435 -3.93472,-13.85595 -5.71826,-20.37778 -5.78108,-21.13963 -0.0394,-0.47902 -0.18849,-1.35529 -0.33108,-1.94728 -0.1426,-0.592 -0.21353,-1.12209 -0.15762,-1.178 0.0559,-0.0558 0.65227,0.16084 1.32527,0.48168 0.67301,0.32084 1.50866,0.67827 1.85702,0.79431 0.34839,0.11603 6.58338,3.62037 13.85557,7.78734 7.27219,4.16701 13.68533,7.83622 14.25144,8.15384 0.5661,0.31758 10.82713,6.17375 22.80229,13.0137 23.80652,13.59772 34.3729,19.62305 53.047,30.24932 5.64944,3.21473 8.69374,4.94154 16.07246,9.11675 1.30638,0.73919 3.15906,1.78842 4.11706,2.33156 0.95803,0.54318 3.5589,2.00262 5.77977,3.24324 5.75559,3.21522 7.02538,3.99139 8.60788,5.26159 3.21763,2.58269 6.60198,7.11536 8.90145,11.92174 1.50847,3.15305 1.31286,2.48176 7.2204,24.77681 0.86467,3.26327 1.70303,6.22916 1.86305,6.59087 0.40934,0.9254 1.31651,1.87426 2.17986,2.28008 0.96445,0.45336 13.49974,4.8524 21.42406,7.51842 3.44015,1.15737 7.21678,2.47539 8.39253,2.92891 1.17574,0.45352 4.16853,1.53571 6.65067,2.40487 9.15048,3.20416 10.40436,3.66593 11.95536,4.40291 2.96841,1.41052 6.77162,4.19842 9.83751,7.21132 2.86133,2.81184 4.70718,5.33623 6.71563,9.18425 0.6364,1.21929 1.67801,3.00807 2.31469,3.97507 2.72925,4.14514 3.75912,6.86562 3.77036,9.95966 0.0102,2.78112 -0.96655,4.87266 -3.2327,6.92291 -1.69732,1.53562 -5.36655,3.17657 -8.00433,3.57971 -1.3333,0.20377 -5.76555,0.56965 -5.85213,0.4831 -0.0337,-0.0337 0.49053,-0.50047 1.16509,-1.03717 1.9979,-1.5895 3.11939,-3.86339 2.49802,-5.06495 -0.78118,-1.51065 -6.00281,-4.76571 -11.24696,-7.01114 -6.35654,-2.72176 -15.05412,-4.46183 -21.2396,-4.2493 -1.73949,0.0598 -2.22884,0.1357 -3.13311,0.48627 -0.58943,0.22849 -6.32563,3.24323 -12.74713,6.69943 -6.4215,3.45618 -12.20989,6.56932 -12.86308,6.91811 -0.65319,0.34875 -1.93581,1.04089 -2.85027,1.53804 -0.91448,0.49715 -2.23273,1.20923 -2.92946,1.58242 -3.87448,2.07522 -4.51095,2.69375 -4.5146,4.38738 -0.002,0.96828 4.83553,25.16969 5.25559,26.29236 0.58202,1.55556 1.01355,1.97291 4.80121,4.64348 0.4694,0.33094 4.88178,3.35541 9.18427,6.29531 5.77744,3.94776 6.63529,4.68351 7.06294,6.05756 0.39881,1.28134 0.39884,3.16319 8e-5,4.02445 -0.35934,0.77618 -1.01213,1.40734 -1.79282,1.73344 -0.74337,0.31051 -3.04989,0.34832 -2.92709,0.0479 z m -29.79466,-33.83327 c 0.33147,-0.26848 0.37149,-0.42548 0.3533,-1.38556 -0.0175,-0.91647 -0.98912,-6.55381 -2.67051,-15.49252 -1.01185,-5.37911 -1.68023,-9.30834 -1.61316,-9.48316 0.0406,-0.10593 0.008,-0.85691 -0.0741,-1.6688 -0.0814,-0.8119 -0.11966,-1.50456 -0.085,-1.53926 0.0346,-0.0346 0.54315,0.15227 1.12993,0.41554 0.58674,0.26326 1.19119,0.47866 1.34319,0.47866 0.15202,0 1.01405,0.36072 1.91564,0.80162 2.16037,1.05647 3.09813,1.29925 4.16674,1.07875 0.72321,-0.14923 2.73217,-1.12482 7.46727,-3.62626 1.38707,-0.73274 12.02218,-6.31466 15.83494,-8.31111 7.11238,-3.72414 10.49927,-5.53845 10.8414,-5.80759 1.00239,-0.78847 1.21074,-1.81469 0.58872,-2.8998 -0.52926,-0.92334 -4.13745,-5.3905 -5.21091,-6.45145 -1.15322,-1.13979 -1.83174,-1.48109 -4.79406,-2.41144 -1.30638,-0.41029 -3.12346,-0.98276 -4.03791,-1.27214 -0.91447,-0.28939 -2.51777,-0.78615 -3.56286,-1.10391 -6.2364,-1.89623 -7.9317,-2.57617 -9.35926,-3.7538 -1.27375,-1.05071 -4.22474,-3.9461 -4.72356,-4.63453 -0.25563,-0.35278 -1.17519,-1.37183 -2.04346,-2.26453 -0.86829,-0.89268 -1.50793,-1.62307 -1.42144,-1.62307 0.0865,0 0.97043,0.23913 1.96429,0.53139 0.99389,0.29227 2.30583,0.61565 2.91549,0.71864 0.60965,0.103 1.64286,0.35794 2.29607,0.56658 0.65318,0.20863 3.43221,1.10299 6.1756,1.98744 2.74341,0.88446 6.0925,1.96415 7.44242,2.39931 7.94239,2.56029 10.79766,3.54318 11.69616,4.02626 1.52963,0.82239 1.53327,0.82617 9.28443,9.64321 1.22499,1.39347 3.00443,3.41545 3.95425,4.49327 0.94984,1.07786 2.05214,2.20025 2.44957,2.49421 0.81683,0.60424 2.02617,1.00962 4.44379,1.48957 9.69775,1.92527 18.79555,5.90473 26.6436,11.65419 1.62799,1.19264 2.67243,1.24701 3.23035,0.16808 0.54091,-1.04599 -0.0337,-2.64819 -1.86096,-5.1879 -1.23745,-1.72001 -1.89339,-2.88652 -3.28837,-5.848 -1.29906,-2.75782 -3.00023,-4.78631 -6.83113,-8.14546 -4.70068,-4.12179 -6.37716,-4.99421 -15.99329,-8.3228 -1.95956,-0.67829 -10.43917,-3.63623 -18.84356,-6.57317 -8.4044,-2.93695 -16.88399,-5.89585 -18.84356,-6.57536 -6.50994,-2.25742 -23.01625,-8.03447 -24.58472,-8.60443 -0.84973,-0.30876 -2.04608,-0.85912 -2.65861,-1.22301 -1.29436,-0.76897 -4.0767,-3.31868 -5.7051,-5.22811 -0.62294,-0.73045 -1.78227,-1.98724 -2.57625,-2.79284 -0.79399,-0.80561 -1.34912,-1.46474 -1.23362,-1.46474 0.11549,0 1.1117,0.27781 2.21376,0.61737 1.10208,0.33954 2.60944,0.75947 3.34972,0.93318 0.74029,0.17371 3.59057,1.10267 6.33399,2.06434 2.74339,0.96168 6.01671,2.10941 7.27404,2.55051 2.64627,0.92835 3.4574,1.01102 4.05512,0.41331 0.71142,-0.71143 0.74205,-0.56259 -2.28251,-11.09165 -0.52536,-1.82893 -1.30785,-4.64378 -1.73887,-6.25522 -1.49223,-5.57907 -3.15587,-8.88345 -6.20467,-12.32387 -2.29403,-2.58868 -3.09577,-3.14213 -11.59168,-8.00176 -3.85497,-2.205 -9.93058,-5.6863 -13.50135,-7.73619 -3.57079,-2.04989 -10.34021,-5.93231 -15.04317,-8.62758 -4.70298,-2.69527 -12.00684,-6.88401 -16.23081,-9.30827 -4.22398,-2.42429 -11.49219,-6.59325 -16.15162,-9.2644 -4.65943,-2.67111 -11.67825,-6.69614 -15.59741,-8.9445 -16.83885,-9.66021 -19.29154,-11.06677 -24.75474,-14.19625 -3.16405,-1.81245 -5.99606,-3.34102 -6.29334,-3.39679 -1.75402,-0.32904 -1.98939,0.59327 -1.01346,3.97137 0.51595,1.78589 3.73697,13.16078 4.75301,16.78501 0.76958,2.74513 1.55065,4.65165 2.5755,6.28662 1.78194,2.84271 3.66051,4.53271 7.35502,6.61669 1.28417,0.72435 3.36807,1.90169 4.6309,2.6163 2.08892,1.18208 3.9689,2.25046 14.96399,8.50395 1.91603,1.08975 5.087,2.88955 7.04656,3.99958 1.95958,1.11004 4.02602,2.28763 4.59212,2.6169 0.5661,0.3293 3.38076,1.93302 6.2548,3.56385 9.02116,5.11892 14.03652,8.02181 15.7152,9.09596 0.89219,0.57086 1.92542,1.22559 2.29607,1.45494 0.9406,0.58195 11.57973,6.77265 14.41161,8.3858 1.28508,0.73204 2.28085,1.34954 2.21281,1.37222 -0.0681,0.0227 -0.94133,-0.32107 -1.94065,-0.76387 -0.99931,-0.44282 -4.06153,-1.76317 -6.80494,-2.93413 -2.7434,-1.17096 -5.3799,-2.3026 -5.85893,-2.51473 -1.4389,-0.63729 -4.6435,-1.94101 -5.06717,-2.06146 -0.21771,-0.0617 -0.78777,-0.27935 -1.26679,-0.48321 -0.479,-0.20387 -2.0823,-0.88241 -3.56284,-1.50787 -1.48059,-0.62547 -3.8677,-1.65534 -5.30471,-2.28862 -1.43704,-0.63324 -5.32054,-2.3455 -8.63005,-3.80497 -3.30948,-1.45948 -6.5517,-2.88539 -7.20489,-3.16869 -0.65317,-0.28329 -3.61035,-1.58154 -6.57149,-2.88496 -15.67441,-6.89956 -14.76335,-6.53272 -15.6634,-6.30681 -0.99099,0.24871 -0.97718,1.35935 0.0632,5.08463 0.43783,1.56765 1.32508,4.80986 1.97168,7.20489 0.64659,2.39502 1.36776,4.88904 1.6026,5.54221 1.31302,3.65223 3.31808,6.35841 6.00856,8.10964 0.60965,0.3968 5.3839,3.27275 10.60942,6.39099 8.85856,5.28621 14.14368,8.52757 14.3306,8.78899 0.0436,0.0608 0.41306,0.31462 0.82114,0.56385 0.40809,0.24923 2.47454,1.53034 4.59213,2.84692 2.11758,1.31655 5.06153,3.12409 6.5421,4.01675 1.48058,0.89264 2.72758,1.66085 2.77112,1.70711 0.18208,0.19345 -0.77292,-0.19055 -4.75048,-1.91007 -6.10797,-2.64051 -10.11345,-4.3248 -10.92789,-4.59509 -1.23826,-0.41093 -8.95149,-3.65593 -11.95358,-5.02893 -3.78041,-1.72893 -4.88224,-1.96348 -5.41366,-1.15244 -0.16594,0.25325 -0.2634,0.67663 -0.24627,1.06993 0.0157,0.35797 0.60377,2.71681 1.30709,5.2419 0.70333,2.52507 1.5973,5.85672 1.98657,7.40368 1.69031,6.71705 2.94659,8.46278 8.56534,11.90258 2.53305,1.55076 18.42718,11.42258 20.40362,12.67268 0.43544,0.27541 1.18363,0.74208 1.66265,1.03699 0.47901,0.29491 1.3341,0.83014 1.90019,1.18942 0.56611,0.35925 4.94842,3.08775 9.73848,6.06331 4.79007,2.97557 9.08399,5.75094 9.54204,6.16755 0.45805,0.41659 1.29279,1.04098 1.85497,1.38751 0.56218,0.34654 1.02467,0.67706 1.02778,0.73452 0.003,0.0574 -0.51098,0.18436 -1.14241,0.28203 -0.63141,0.0976 -1.71809,0.3176 -2.41482,0.4888 -0.69674,0.17117 -4.01019,0.59695 -7.36324,0.94616 -8.38766,0.87355 -9.54992,1.02872 -10.24347,1.36747 -0.4403,0.21507 -0.61658,0.40824 -0.65203,0.71449 -0.099,0.85499 0.66185,1.39398 7.35658,5.21144 8.03971,4.58441 8.36019,4.74071 9.71997,4.74071 1.06897,0 1.88127,-0.22933 5.2201,-1.47382 4.77286,-1.77901 5.92115,-2.17185 6.75592,-2.31133 0.5082,-0.0849 1.13838,-0.19978 1.40041,-0.25529 0.47236,-0.10009 0.48328,-0.0865 1.29921,1.61348 0.54104,1.12728 1.92947,5.02323 4.05422,11.37632 1.77725,5.31408 3.46276,10.1952 3.74554,10.84693 1.36163,3.13802 4.47448,6.71075 8.10352,9.30067 2.46786,1.76121 3.48921,2.11444 4.27452,1.47835 z m 74.736,-43.96807 c -0.90503,-0.21011 -1.7549,-0.47146 -1.88862,-0.58077 -0.21424,-0.17513 -0.7944,-1.32999 -2.31476,-4.60769 -0.23604,-0.50888 -0.39655,-0.95791 -0.35668,-0.99779 0.0841,-0.0841 2.32364,1.21442 3.06756,1.77842 0.27726,0.2102 0.60239,0.38218 0.72255,0.38218 0.26087,0 1.02544,0.77208 1.09764,1.10844 0.0281,0.13065 0.3079,0.62945 0.62192,1.10843 0.66599,1.01597 1.09174,1.81566 1.09174,2.05068 0,0.21918 -0.11307,0.20577 -2.04135,-0.2419 z M 234.7476,312.32811 c -8.29253,-0.51251 -16.40262,-2.19614 -24.09896,-5.00289 -17.48453,-6.37634 -32.38368,-18.21842 -42.60293,-33.86144 -7.42747,-11.36949 -11.83806,-23.65133 -13.44867,-37.44959 -0.31564,-2.70411 -0.36103,-3.86508 -0.36524,-9.3426 -0.005,-7.34728 0.263,-10.56137 1.3447,-16.0869 0.49275,-2.51711 0.80386,-3.5867 1.14141,-3.92424 0.11233,-0.11233 0.62846,-1.57011 1.14698,-3.23954 0.51852,-1.66942 0.98173,-3.03531 1.02936,-3.03531 0.0477,0 0.4976,1.28466 0.99992,2.85478 0.50232,1.57012 1.04322,2.98472 1.20203,3.14353 0.40437,0.40435 1.07005,2.32101 2.48801,7.16367 2.52685,8.62957 2.57599,8.9004 2.91554,16.06164 0.55941,11.79903 3.42572,22.10739 8.98126,32.30018 6.27545,11.51359 15.95894,21.49881 27.20085,28.0483 2.92559,1.70444 3.5094,2.01281 6.10345,3.22385 4.3722,2.04116 7.95957,3.33831 12.89845,4.66397 4.82551,1.29523 12.2805,2.28184 17.46756,2.31168 1.10519,0.008 2.40132,0.0812 2.88032,0.16615 0.47902,0.085 1.39014,0.19465 2.02472,0.24357 1.13427,0.0874 1.15886,0.0987 1.45248,0.66517 0.16429,0.31691 0.6599,0.99996 1.10134,1.51784 1.02953,1.20785 2.38892,3.87742 2.46514,4.8411 0.031,0.39356 0.31174,1.2958 0.62355,2.00503 0.31181,0.7092 0.56694,1.36375 0.56694,1.45456 0,0.16237 -0.28013,0.22831 -1.78747,0.42064 -0.41701,0.0531 -1.16521,0.23795 -1.66266,0.41055 -0.49747,0.17262 -1.61703,0.3792 -2.48796,0.45912 -1.84581,0.16935 -6.73847,0.16281 -9.58012,-0.0129 z m 88.21723,-75.90758 c -0.79142,-0.40747 -1.64692,-0.72197 -2.11435,-0.77734 -0.53082,-0.0629 -1.20291,-0.33582 -2.07524,-0.84282 -1.45308,-0.84455 -2.87187,-1.84536 -3.06296,-2.16059 -0.0701,-0.11561 -0.46586,-0.44031 -0.87955,-0.72157 -0.74465,-0.50625 -0.75216,-0.52009 -0.75216,-1.3851 0,-0.48054 -0.0798,-1.02271 -0.17722,-1.20482 -0.10517,-0.19656 -0.23015,-1.91356 -0.30752,-4.22544 -0.18738,-5.59893 -0.66941,-9.60004 -1.75477,-14.56573 -2.63184,-12.0411 -8.48398,-23.55242 -16.67254,-32.79546 -1.19017,-1.34342 -5.86935,-5.95829 -7.1551,-7.05675 -4.73186,-4.04256 -9.27249,-7.06382 -14.86615,-9.89168 -6.5849,-3.32896 -13.09068,-5.50865 -20.2687,-6.79077 -4.96602,-0.88704 -6.80452,-1.02462 -14.01391,-1.04873 -4.1538,-0.0139 -6.83364,-0.0859 -7.28406,-0.1957 -0.39191,-0.0956 -1.02715,-0.25252 -1.41165,-0.34883 -1.64727,-0.41257 -7.36993,-3.74736 -8.71789,-5.08018 -0.48976,-0.48427 -1.61756,-1.33303 -2.50619,-1.88613 -0.88864,-0.55311 -1.6157,-1.05069 -1.6157,-1.10574 0,-0.10473 0.0549,-0.122 3.04257,-0.96035 1.02025,-0.28626 1.81937,-0.57809 1.77584,-0.64851 -0.1863,-0.30141 2.82681,-0.95978 6.74108,-1.47293 16.44552,-2.1559 33.22956,0.51102 48.20857,7.66025 10.25381,4.89396 19.84628,12.19871 27.53511,20.9683 11.06475,12.61996 18.04642,27.7971 20.44134,44.43644 0.56945,3.95647 0.63911,5.2187 0.6423,11.63867 0.003,6.37384 -0.003,6.5111 -0.36077,7.52157 -0.30193,0.85366 -0.6399,2.61641 -0.66034,3.44411 -0.008,0.3144 -0.31245,0.22563 -1.73004,-0.50417 z"
         style="fill:#ff0000" />
    </g>
  </g>
</svg>
